<?xml version="1.0" encoding="UTF-8" standalone="no"?>
<svg
   xmlns:dc="http://purl.org/dc/elements/1.1/"
   xmlns:cc="http://creativecommons.org/ns#"
   xmlns:rdf="http://www.w3.org/1999/02/22-rdf-syntax-ns#"
   xmlns:svg="http://www.w3.org/2000/svg"
   xmlns="http://www.w3.org/2000/svg"
   xmlns:sodipodi="http://sodipodi.sourceforge.net/DTD/sodipodi-0.dtd"
   xmlns:inkscape="http://www.inkscape.org/namespaces/inkscape"
   height="130"
   width="130"
   viewbox="0 0 110 110"
   version="1.1"
   id="svg108"
   sodipodi:docname="icon.svg"
   inkscape:version="1.0.2 (e86c870879, 2021-01-15)">
  <metadata
     id="metadata114">
    <rdf:RDF>
      <cc:Work
         rdf:about="">
        <dc:format>image/svg+xml</dc:format>
        <dc:type
           rdf:resource="http://purl.org/dc/dcmitype/StillImage" />
        <dc:title></dc:title>
      </cc:Work>
    </rdf:RDF>
  </metadata>
  <defs
     id="defs112" />
  <sodipodi:namedview
     pagecolor="#ffffff"
     bordercolor="#666666"
     borderopacity="1"
     objecttolerance="10"
     gridtolerance="10"
     guidetolerance="10"
     inkscape:pageopacity="0"
     inkscape:pageshadow="2"
     inkscape:window-width="1920"
     inkscape:window-height="1059"
     id="namedview110"
     showgrid="false"
     inkscape:zoom="3.9181818"
     inkscape:cx="-38.563924"
     inkscape:cy="71.788433"
     inkscape:window-x="0"
     inkscape:window-y="21"
     inkscape:window-maximized="0"
     inkscape:current-layer="layer1" />
  <g
     inkscape:groupmode="layer"
     id="layer1"
     inkscape:label="bg"
     transform="translate(10,10)">
    <circle
       id="path116"
       cx="55"
       cy="55"
       style="stroke-width:2.28705"
       r="65" />
  </g>
  <g
     inkscape:groupmode="layer"
     id="layer2"
     inkscape:label="fg"
     transform="translate(10,10)">
    <g
       id="g106">
      <circle
         cx="55"
         cy="55"
         stroke="#beb0d1"
         stroke-width="7"
         fill="none"
         id="ellipse98"
         r="50" />
      <ellipse
         cx="55"
         cy="55"
         rx="44"
         ry="30"
         stroke="#beb0d1"
         stroke-width="7"
         fill="none"
         id="ellipse100" />
      <ellipse
         cx="55"
         cy="55"
         rx="20"
         ry="30"
         stroke="#beb0d1"
         stroke-width="7"
         fill="none"
         transform="rotate(45,55,55)"
         id="ellipse102" />
      <ellipse
         cx="55"
         cy="55"
         rx="10"
         ry="20"
         stroke="#beb0d1"
         stroke-width="7"
         fill="none"
         transform="rotate(-45,55,55)"
         id="ellipse104" />
    </g>
  </g>
</svg>
