<svg xmlns="http://www.w3.org/2000/svg" viewBox="0 0 120 120">
  <ellipse cx="60"
           cy="60"
           rx="49"
           ry="50"
           stroke="#beb0d1"
           stroke-width="7"
           fill="none">
    <animate attributeType="xml"
             attributeName="rx"
             from="50"
             to="50"
             values="50; 50; 1; 1; 50; 50"
             keyTimes="0; 0.02; 0.49; 0.51; 0.98; 1"
             dur="3s"
             repeatCount="indefinite"/>
  </ellipse>
  <ellipse cx="60"
           cy="60"
           rx="44"
           ry="40"
           stroke="#beb0d1"
           stroke-width="7"
           fill="none">
    <animate attributeType="xml"
             attributeName="ry"
             from="40"
             to="40"
             values="40; 40; 1; 1; 40; 40"
             keyTimes="0; 0.02; 0.49; 0.51; 0.98; 1"
             dur="2.9s"
             repeatCount="indefinite"/>
  </ellipse>
  <ellipse cx="60"
           cy="60"
           rx="29"
           ry="30"
           stroke="#beb0d1"
           stroke-width="7"
           fill="none"
           transform="rotate(45, 60, 60)">
    <animate attributeType="xml"
             attributeName="rx"
             from="30"
             to="30"
             values="30; 30; 1; 1; 30; 30"
             keyTimes="0; 0.02; 0.49; 0.51; 0.98; 1"
             dur="2.8s"
             repeatCount="indefinite"/>
  </ellipse>
  <ellipse cx="60"
           cy="60"
           rx="19"
           ry="20"
           stroke="#beb0d1"
           stroke-width="7"
           fill="none"
           transform="rotate(-45, 60, 60)">
    <animate attributeType="xml"
             attributeName="rx"
             from="20"
             to="20"
             values="20; 20; 1; 1; 20; 20"
             keyTimes="0; 0.02; 0.49; 0.51; 0.98; 1"
             dur="2.7s"
             repeatCount="indefinite"/>
  </ellipse>
</svg>
