{
  "Add": {
    "fr": "Ajouter"
  },
  "Admin": {
    "fr": "Admin"
  },
  "Applications": {
    "fr": "Applications"
  },
  "Authenticating...": {
    "fr": "Authentification..."
  },
  "Budget": {
    "fr": "Budget"
  },
  "Cancel": {
    "fr": "Annuler"
  },
  "Dark theme": {
    "fr": "Th\u00e8me sombre"
  },
  "Delete": {
    "fr": "Supprimer"
  },
  "Email": {
    "fr": "Courriel"
  },
  "Home": {
    "fr": "Accueil"
  },
  "Hub": {
    "fr": "Hub"
  },
  "Light theme": {
    "fr": "Th\u00e8me clair"
  },
  "Menu": {
    "fr": "Menu"
  },
  "Refresh user": {
    "fr": "Rafraichir utilisateur"
  },
  "Schedule": {
    "fr": "Horaire"
  },
  "Send": {
    "fr": "Envoyer"
  },
  "Settings": {
    "fr": "R\u00e9glages"
  },
  "Sign in with your email": {
    "fr": "Connectez-vous avec votre courriel"
  },
  "Sign out": {
    "fr": "D\u00e9connexion"
  },
  "Time Tracking": {
    "fr": "Suivi du temps"
  },
  "Update": {
    "fr": "Modifier"
  },
  "We will send you a one time password with which you will be able to sign in.": {
    "fr": "Nous vous enverrons un mot de passe \u00e0 usage unique avec lequel vous pourrez vous connecter."
  }
}
